Codebook: Study on value creation model of science-society interactions
…
STEM. Science, Technology, Engineering and Mathematics.

df.vars <- df %>%
  tidyr::pivot_longer(!field & !ID_FINAL, 
                      names_to = "variable",
                      values_to = "value")

df.vars %>%
  group_by(field, variable) %>%
summarise(n = n(), mean = mean(value), sd = sd(value))

## `summarise()` has grouped output by 'field'. You can override using the `.groups` argument.

## # A tibble: 27 x 5
## # Groups:   field [3]
##    field  variable              n    mean     sd
##    <chr>  <chr>             <int>   <dbl>  <dbl>
##  1 BIOMED Commercialisation  1830 0.539   1.03  
##  2 BIOMED Dissemination      1830 1.54    0.654 
##  3 BIOMED Engagement         1830 1.33    1.42  
##  4 BIOMED Joint research     1830 0.880   1.18  
##  5 BIOMED Media promotion    1830 0.0520  0.113 
##  6 BIOMED Openness           1830 0.499   0.314 
##  7 BIOMED Public Policy      1830 0.00922 0.0522
##  8 BIOMED Social visibility  1830 0.550   0.261 
##  9 BIOMED Transmission       1830 2.65    0.959 
## 10 SSH    Commercialisation   964 0.206   0.620 
## # ... with 17 more rows
…
